# Blender3D MTL File: anaconda.blend
# Material Count: 5
newmtl Material.002
Ns 96.078431
Ka 0.000000 0.000000 0.000000
Kd 0.000000 0.480000 0.000000
Ks 0.500000 0.500000 0.500000
Ni 1.000000
d 1.000000
illum 2


newmtl Material.003
Ns 96.078431
Ka 0.000000 0.000000 0.000000
Kd 0.000000 0.640000 0.000000
Ks 0.500000 0.500000 0.500000
Ni 1.000000
d 1.000000
illum 2


newmtl Material.001
Ns 96.078431
Ka 0.000000 0.000000 0.000000
Kd 0.000000 0.320000 0.000000
Ks 0.500000 0.500000 0.500000
Ni 1.000000
d 1.000000
illum 2


newmtl Material.004
Ns 96.078431
Ka 0.000000 0.000000 0.000000
Kd 0.000000 0.800000 0.000000
Ks 0.500000 0.500000 0.500000
Ni 1.000000
d 1.000000
illum 2


newmtl Material
Ns 96.078431
Ka 0.000000 0.000000 0.000000
Kd 0.112000 0.112000 0.112000
Ks 0.500000 0.500000 0.500000
Ni 1.000000
d 1.000000
illum 2


