# Blender3D v249 OBJ File: cobramk3.blend
# www.blender3d.org
mtllib cobramk3.mtl
v 0.000000 0.317823 0.308706
v -0.400000 -0.007176 0.958706
v 0.400000 -0.007176 0.958706
v -0.400000 -0.307177 -0.494627
v 0.400000 -0.307177 -0.494627
v 1.100000 0.192824 -0.494627
v 1.500000 -0.045176 -0.091294
v 1.600000 -0.107176 -0.494627
v -1.100000 0.192824 -0.494627
v -1.500000 -0.045176 -0.091294
v -1.600000 -0.107176 -0.494627
v 0.000000 0.317823 -0.494627
v 0.100000 0.142824 -0.494627
v 0.450000 0.092824 -0.494627
v 0.450000 -0.157176 -0.494627
v 0.100000 -0.207176 -0.494627
v -0.450000 0.092824 -0.494627
v -0.100000 0.142824 -0.494627
v -0.100000 -0.207176 -0.494627
v -0.450000 -0.157176 -0.494627
v 1.000000 0.067824 -0.494627
v 1.100000 -0.007176 -0.494627
v 1.000000 -0.082176 -0.494627
v -1.100000 -0.007176 -0.494627
v -1.000000 0.067824 -0.494627
v -1.000000 -0.082176 -0.494627
v -0.020000 -0.027177 1.133706
v 0.020000 -0.027177 1.133706
v 0.020000 -0.027177 0.958706
v -0.020000 -0.027177 0.958706
v 0.020000 0.012824 1.133706
v 0.020000 0.012824 0.958706
v -0.020000 0.012824 0.958706
v -0.020000 0.012824 1.133706
v -0.020000 -0.027177 0.958706
v -0.020000 0.012824 0.958706
v 0.020000 0.012824 0.958706
v 0.020000 -0.027177 0.958706
v 0.020000 -0.027177 0.959046
v -0.020000 -0.027177 0.959046
v 0.020000 0.012824 0.959046
v -0.020000 0.012824 0.959046
vn 0.000000 0.894427 0.447214
vn 0.000000 -0.979352 0.202160
vn 0.301907 0.913953 0.271187
vn 0.283203 0.922205 0.263314
vn 0.161094 -0.966561 0.199520
vn 0.142899 -0.972314 0.184893
vn -0.301907 0.913953 0.271187
vn -0.283203 0.922205 0.263314
vn -0.142899 -0.972314 0.184893
vn -0.161094 -0.966561 0.199520
vn -0.112910 0.993605 -0.000000
vn 0.112910 0.993605 -0.000000
vn -0.514491 0.857485 -0.004252
vn 0.514491 0.857485 -0.004252
vn 0.000000 0.000000 -1.000000
vn 0.000000 1.000000 -0.000000
vn 1.000000 0.000000 0.000000
vn 0.000000 -1.000000 0.000000
vn -1.000000 0.000000 0.000000
vn 0.000000 1.000000 -0.000005
vn 0.000000 0.000000 0.000000
usemtl Material.002
s off
f 1//1 2//1 3//1
usemtl Material.004
f 3//2 2//2 4//2
f 3//2 4//2 5//2
usemtl Material.005
f 6//3 1//3 3//3
usemtl Material.003
f 3//4 7//4 6//4
usemtl Material.005
f 3//5 5//5 8//5
usemtl Material.002
f 3//6 8//6 7//6
usemtl Material.005
f 2//7 1//7 9//7
usemtl Material.003
f 9//8 10//8 2//8
usemtl Material.002
f 2//9 10//9 11//9
usemtl Material.005
f 2//10 11//10 4//10
usemtl Material.004
f 9//11 1//11 12//11
f 1//12 6//12 12//12
usemtl Material.001
f 9//13 11//13 10//13
f 8//14 6//14 7//14
usemtl Thruster
f 13//15 14//15 15//15
f 13//15 15//15 16//15
f 17//15 18//15 19//15
f 17//15 19//15 20//15
f 21//15 22//15 23//15
f 24//15 25//15 26//15
usemtl Material.007
f 27//16 28//16 29//16
f 27//16 29//16 30//16
f 31//17 28//17 29//17
f 31//17 29//17 32//17
f 33//18 32//18 31//18
f 33//18 31//18 34//18
f 27//19 34//19 33//19
f 27//19 33//19 30//19
f 6//15 8//15 22//15
f 8//15 23//15 22//15
f 5//15 23//15 8//15
f 5//15 15//15 23//15
f 14//15 23//15 15//15
f 14//15 21//15 23//15
f 6//15 22//15 21//15
f 6//15 21//15 14//15
f 6//15 14//15 13//15
f 6//15 13//15 12//15
f 12//15 13//15 18//15
f 5//15 16//15 15//15
f 4//15 16//15 5//15
f 4//15 19//15 16//15
f 13//15 16//15 19//15
f 13//15 19//15 18//15
f 9//15 12//15 18//15
f 9//15 18//15 17//15
f 9//15 17//15 25//15
f 9//15 25//15 24//15
f 17//15 26//15 25//15
f 17//15 20//15 26//15
f 4//15 20//15 19//15
f 4//15 26//15 20//15
f 4//15 11//15 26//15
f 11//15 24//15 26//15
f 9//15 24//15 11//15
f 27//15 34//15 31//15
f 27//15 31//15 28//15
f 39//15 40//15 42//15
f 39//15 42//15 41//15
f 35//17 36//17 42//17
f 35//17 42//17 40//17
f 36//18 37//18 41//18
f 36//18 41//18 42//18
f 37//19 38//19 39//19
f 37//19 39//19 41//19
f 38//20 35//20 40//20
f 38//20 40//20 39//20
f 29//21 30//21 35//21
f 29//21 35//21 38//21
f 32//21 29//21 38//21
f 32//21 38//21 37//21
f 33//21 32//21 37//21
f 33//21 37//21 36//21
f 30//21 33//21 36//21
f 30//21 36//21 35//21
