# Blender3D v249 OBJ File: coriolis.blend
# www.blender3d.org
mtllib coriolis.mtl
v 1.599950 -1.599950 0.000000
v 1.599950 0.000050 -1.600000
v 1.599950 1.600050 -0.000000
v 1.599950 0.000050 1.600000
v -0.000050 -1.599950 1.600000
v -0.000050 -1.599950 -1.600000
v -0.000050 1.600050 -1.600000
v -0.000050 1.600050 1.600000
v -1.600050 0.000050 1.600000
v -1.600050 -1.599950 0.000000
v -1.600050 1.600050 -0.000000
v -1.600050 0.000050 -1.600000
v 1.600050 0.100050 0.300000
v 1.600050 -0.099950 0.300000
v 1.600050 -0.099950 -0.300000
v 1.600050 0.100050 -0.300000
vn 0.577350 -0.577350 0.577350
vn 0.577350 -0.577350 -0.577350
vn 0.577350 0.577350 -0.577350
vn 0.577350 0.577350 0.577350
vn 0.000000 0.000000 1.000000
vn 0.000000 -1.000000 0.000000
vn 0.000000 1.000000 -0.000000
vn -0.000000 -0.000000 -1.000000
vn -0.577350 0.577350 0.577350
vn -0.577350 -0.577350 0.577350
vn -0.577350 -0.577350 -0.577350
vn -0.577350 0.577350 -0.577350
vn -1.000000 0.000000 0.000000
vn 1.000000 0.000000 0.000000
vn 1.000000 0.000083 -0.000083
vn 1.000000 0.000067 -0.000000
vn 1.000000 0.000083 0.000083
vn 1.000000 0.000000 0.000077
vn 1.000000 0.000000 -0.000077
vn 1.000000 -0.000083 -0.000083
vn 1.000000 -0.000067 0.000000
vn 1.000000 -0.000083 0.000083
usemtl Material.002
s off
f 5//1 1//1 4//1
f 1//2 6//2 2//2
f 2//3 7//3 3//3
f 3//4 8//4 4//4
usemtl Material.001
f 5//5 4//5 8//5
f 5//5 8//5 9//5
f 6//6 1//6 10//6
f 10//6 1//6 5//6
f 11//7 8//7 3//7
f 11//7 3//7 7//7
f 2//8 6//8 12//8
f 2//8 12//8 7//8
usemtl Material.002
f 9//9 8//9 11//9
f 9//10 10//10 5//10
f 12//11 6//11 10//11
f 11//12 7//12 12//12
usemtl Material.001
f 9//13 11//13 12//13
f 9//13 12//13 10//13
usemtl Material.003
f 13//14 14//14 15//14
f 13//14 15//14 16//14
usemtl Material.001
f 2//15 3//15 16//15
f 3//16 13//16 16//16
f 3//17 4//17 13//17
f 4//18 14//18 13//18
f 2//19 16//19 15//19
f 1//20 2//20 15//20
f 1//21 15//21 14//21
f 1//22 14//22 4//22
