# Blender3D v249 OBJ File: krait.blend
# www.blender3d.org
mtllib krait.mtl
v 0.000000 0.000000 0.960000
v 0.920000 0.010000 -0.030000
v 0.000000 0.180000 -0.480000
v 0.000000 -0.180000 -0.480000
v -0.920000 0.010000 -0.030000
v 0.180000 -0.110000 -0.398726
v 0.180000 0.110000 -0.398726
v 0.360000 -0.000000 -0.308726
v -0.360000 -0.000000 -0.306640
v -0.180000 0.110000 -0.396640
v -0.180000 -0.110000 -0.396640
v 0.000000 0.063358 0.530000
v 0.180000 0.083358 0.190000
v 0.000000 0.082358 0.380000
v -0.180000 0.083358 0.190000
v -0.920000 0.010000 0.870000
v -0.900000 0.001000 0.870000
v -0.900000 0.001000 -0.030000
v -0.900000 -0.010000 -0.030000
v -0.900000 -0.010000 0.870000
v -0.920000 -0.010000 0.870000
v -0.920000 -0.010000 -0.030000
v 0.900000 0.001000 -0.030000
v 0.900000 0.001000 0.870000
v 0.920000 0.010000 0.870000
v 0.920000 -0.010000 -0.030000
v 0.920000 -0.010000 0.870000
v 0.900000 -0.010000 0.870000
v 0.900000 -0.010000 -0.030000
vn 0.121773 0.984893 0.123112
vn 0.142780 -0.982112 0.122764
vn -0.142780 -0.982112 0.122764
vn -0.121773 0.984893 0.123112
vn 0.439385 0.000000 -0.898299
vn -0.439385 0.000000 -0.898299
vn 0.447214 0.000000 -0.894427
vn -0.447214 0.000000 -0.894427
vn 0.126117 0.984152 0.124659
vn -0.126117 0.984152 0.124659
vn 0.410365 0.911921 0.000000
vn 1.000000 0.000000 0.000000
vn 0.000000 -1.000000 0.000000
vn -1.000000 0.000000 0.000000
vn -0.410365 0.911921 0.000000
vn 0.000000 -0.000000 1.000000
vn 0.000000 0.000000 -1.000000
usemtl DarkGreen
s off
f 1//1 2//1 3//1
f 2//2 1//2 4//2
f 1//3 5//3 4//3
f 5//4 1//4 3//4
f 2//5 4//5 3//5
usemtl Black
f 5//6 3//6 4//6
usemtl Thruster
f 6//7 7//7 8//7
f 9//8 10//8 11//8
usemtl PaleGreen
f 12//9 13//9 14//9
f 14//10 15//10 12//10
usemtl Black
f 5//11 16//11 17//11
f 5//11 17//11 18//11
f 19//12 18//12 17//12
f 19//12 17//12 20//12
f 19//13 20//13 21//13
f 19//13 21//13 22//13
f 21//14 16//14 5//14
f 21//14 5//14 22//14
f 23//15 24//15 25//15
f 23//15 25//15 2//15
f 26//12 2//12 25//12
f 26//12 25//12 27//12
f 26//13 27//13 28//13
usemtl Thruster
f 26//13 28//13 29//13
usemtl Black
f 28//14 24//14 23//14
f 28//14 23//14 29//14
f 16//16 21//16 17//16
f 21//16 20//16 17//16
f 5//17 18//17 22//17
f 18//17 19//17 22//17
f 2//17 26//17 23//17
f 26//17 29//17 23//17
f 24//16 28//16 27//16
f 24//16 27//16 25//16
